{
  "_meta": {
    "sources": [
      "loopback/common/models",
      "loopback/server/models",
      "../common/models",
      "./models"
    ],
    "mixins": [
      "loopback/common/mixins",
      "loopback/server/mixins",
      "../common/mixins",
      "./mixins"
    ]
  },
  "AccessToken": {
    "dataSource": "localdb",
    "public": false,
    "relations": {
      "user": {
        "type": "belongsTo",
        "model": "user",
        "foreignKey": "userId"
      }
    }
  },
  "ACL": {
    "dataSource": "localdb",
    "public": false
  },
  "RoleMapping": {
    "dataSource": "localdb",
    "public": false,
    "options": {
      "strictObjectIDCoercion": true
    }
  },
  "Role": {
    "dataSource": "localdb",
    "public": false
  },
  "storage": {
    "dataSource": "storage",
    "public": true
  },
  "user": {
    "dataSource": "localdb",
    "public": true
  },
  "task": {
    "dataSource": "localdb",
    "public": true
  }
}
